﻿identifier;ProposalID;title;category_code;descr;price;currency_code;uncertainty_code; assignedEmployee_employeeId;man_hours;component_ComponentID
prop_0001;1e94fee2-e8ca-4305-b21c-850067161d94;Performance Optimization for Hiring Systems;software;General Optimization/Bug Squashing;20;USD;1;067460c5-196c-4783-9563-ede797399da2;10;SuccessFactor
prop_0002;2e94fee2-e8ca-4305-b21c-850067161d94;Implementation of GECCO;gecco;Gavdi Easy Certification and Competency Orgaization Implementation;30;EUR;2;067460c5-196c-4783-9563-ede797399da4;432;JIRA
prop_0003;3e94fee2-e8ca-4305-b21c-850067161d94;Safe Space Development;inquiry;A place where devs can cry and air their grievances;60;GBP;2;067460c5-196c-4783-9563-ede797399da3;323;Import/Export
prop_0004;4e94fee2-e8ca-4305-b21c-850067161d94;Panic Button;software;Adding a Panic Button for the 'Oh shit' moments in coding;1000;USD;1;067460c5-196c-4783-9563-ede797399da1;23;SuccessFactor
prop_0005;5e94fee2-e8ca-4305-b21c-850067161d94;Coffee Button;hardware;MORTEN WANT COFFEE;30;EUR;3;067460c5-196c-4783-9563-ede797399da2;222;JIRA
prop_0006;6e94fee2-e8ca-4305-b21c-850067161d94;Beer Snob button;software;When someone asks "Does this pair with with a Belgian Tripel?";60;GBP;3;067460c5-196c-4783-9563-ede797399da7;28;Import/Export
prop_0007;7e94fee2-e8ca-4305-b21c-850067161d94;Database Optimization;security;General Optimization/Bug Squashing;20;USD;1;067460c5-196c-4783-9563-ede797399da6;98;Import/Export
prop_0008;8e94fee2-e8ca-4305-b21c-850067161d94;Further Implementation and Support of GECCO;gecco;Gavdi Easy Certification and Competency Orgaization Implementation;30;EUR;1;067460c5-196c-4783-9563-ede797399da2;76;Import/Export
prop_0009;9e94fee2-e8ca-4305-b21c-850067161d94;Choccy Milk Button Implementation;hardware;Implementation of a choccy milk button for the king that you are;60;GBP;1;067460c5-196c-4783-9563-ede797399da5;54;SuccessFactor